{
  "users": [
    {
      "id": 1,
      "name": "Rizky",
      "age": 21,
      "key": 1
    },
    {
      "id": 2,
      "name": "Vaiq",
      "age": 25,
      "key": 2
    },
    {
      "id": 3,
      "name": "Rizki Nur",
      "age": 21,
      "key": 3
    }
  ]
}
